Political Opportunities in PA and Ohio
…
Despite geographic proximity and historical similarities, Pennsylvania and Ohio have different political leanings. While both swing states, in statewide 2018 elections Pennsylvania voted decidedly Democrat while Ohio remained a Republican stronghold. We plan to explore demographics and historical trends to pinpoint similarities, differences, and potential political strategies in these states. We will focus voter data analysis for these states by exploring key ideas: voter turnout, comparing urban and rural counties, and voting patterns in relation to education.

We are using three datasets in our analysis, all sourced from MIT Election Lab. All information is organized by county. The datasets include: 2018 election returns for Pennsylvania, 2018 returns for Ohio, and a comprehensive file with demographic overviews, total voting population, and vote counts for previous elections going back to 2014. Demographic characteristics include education, race, median household income, age, and gender. We acknowledge our analysis is somewhat limited to examining demographic totals by county. However, our aim is largely to see if what we know about individual voting habits from research can be translated into political strategy on an aggregate level.

Data Definitions

library(readr)
datadefined <- read_csv("Data Definitions.csv")

## Warning: Missing column names filled in: 'X3' [3], 'X4' [4], 'X5' [5]

datadefined <-subset(datadefined[,c(1:2)])
datadefined

## # A tibble: 73 x 2
##    Variable                               Definition                      
##    <chr>                                  <chr>                           
##  1 State                                  State name                      
##  2 County                                 County name                     
##  3 FIPS                                   County FIPS code                
##  4 Trump16, Clinton16, Otherpres16, Romn~ Presidential candidate vote tot~
##  5 Demsen16, Repsen16, Othersen16, Demho~ Senate, House, and Governor can~
##  6 Repgov14, Demgov14, Othergov14         Governor candidate vote totals ~
##  7 Cvap                                   Citizen voting-age population   
##  8 White_pct                              Non-Hispanic whites as a percen~
##  9 Black_pct                              Non-Hispanic blacks as a percen~
## 10 Hispanic_pct                           Hispanics or Latinos as a perce~
## # ... with 63 more rows
…
